build/simulation/qsim/SingleClock.msim.vcd
$comment
	File created using the following command:
		vcd file SingleClock.msim.vcd -direction
$end
$date
	Fri May 24 17:47:24 2019
$end
$version
	ModelSim Version 10.5b
$end
$timescale
	1ps
$end

$scope module SingleClock_vlg_vec_tst $end
$var reg 1 ! clk $end
$var reg 8 " instruction [7:0] $end
$var reg 1 # load $end
$var reg 32 $ pc_load [31:0] $end
$var reg 1 % reset $end
$var wire 1 & pin_name6 $end

$scope module i1 $end
$var wire 1 ' gnd $end
$var wire 1 ( vcc $end
$var wire 1 ) unknown $end
$var tri1 1 * devclrn $end
$var tri1 1 + devpor $end
$var tri1 1 , devoe $end
$var wire 1 - clk~input_o $end
$var wire 1 . reset~input_o $end
$var wire 1 / load~input_o $end
$var wire 1 0 instruction[7]~input_o $end
$var wire 1 1 instruction[6]~input_o $end
$var wire 1 2 instruction[5]~input_o $end
$var wire 1 3 instruction[4]~input_o $end
$var wire 1 4 instruction[3]~input_o $end
$var wire 1 5 instruction[2]~input_o $end
$var wire 1 6 instruction[1]~input_o $end
$var wire 1 7 instruction[0]~input_o $end
$var wire 1 8 pc_load[31]~input_o $end
$var wire 1 9 pc_load[30]~input_o $end
$var wire 1 : pc_load[29]~input_o $end
$var wire 1 ; pc_load[28]~input_o $end
$var wire 1 < pc_load[27]~input_o $end
$var wire 1 = pc_load[26]~input_o $end
$var wire 1 > pc_load[25]~input_o $end
$var wire 1 ? pc_load[24]~input_o $end
$var wire 1 @ pc_load[23]~input_o $end
$var wire 1 A pc_load[22]~input_o $end
$var wire 1 B pc_load[21]~input_o $end
$var wire 1 C pc_load[20]~input_o $end
$var wire 1 D pc_load[19]~input_o $end
$var wire 1 E pc_load[18]~input_o $end
$var wire 1 F pc_load[17]~input_o $end
$var wire 1 G pc_load[16]~input_o $end
$var wire 1 H pc_load[15]~input_o $end
$var wire 1 I pc_load[14]~input_o $end
$var wire 1 J pc_load[13]~input_o $end
$var wire 1 K pc_load[12]~input_o $end
$var wire 1 L pc_load[11]~input_o $end
$var wire 1 M pc_load[10]~input_o $end
$var wire 1 N pc_load[9]~input_o $end
$var wire 1 O pc_load[8]~input_o $end
$var wire 1 P pc_load[7]~input_o $end
$var wire 1 Q pc_load[6]~input_o $end
$var wire 1 R pc_load[5]~input_o $end
$var wire 1 S pc_load[4]~input_o $end
$var wire 1 T pc_load[3]~input_o $end
$var wire 1 U pc_load[2]~input_o $end
$var wire 1 V pc_load[1]~input_o $end
$var wire 1 W pc_load[0]~input_o $end
$var wire 1 X pin_name6~output_o $end
$upscope $end
$upscope $end
$enddefinitions $end
#0
$dumpvars
0!
b10 "
0#
b0 $
0%
0&
0'
1(
x)
1*
1+
1,
0-
0.
0/
00
01
02
03
04
05
16
07
08
09
0:
0;
0<
0=
0>
0?
0@
0A
0B
0C
0D
0E
0F
0G
0H
0I
0J
0K
0L
0M
0N
0O
0P
0Q
0R
0S
0T
0U
0V
0W
0X
$end
#5000
1!
1-
#10000
0!
0-
#15000
1!
1-
#20000
0!
0-
#25000
1!
1-
#30000
0!
0-
#35000
1!
1-
#40000
0!
0-
#45000
1!
1-
#50000
0!
0-
#55000
1!
1-
#60000
0!
0-
#65000
1!
1-
#70000
0!
0-
#75000
1!
1-
#80000
0!
0-
#85000
1!
1-
#90000
0!
0-
#95000
1!
1-
#100000
0!
0-
#105000
1!
1-
#110000
0!
0-
#115000
1!
1-
#120000
0!
0-
#125000
1!
1-
#130000
0!
0-
#135000
1!
1-
#140000
0!
0-
#145000
1!
1-
#150000
0!
0-
#155000
1!
1-
#160000
0!
0-
#165000
1!
1-
#170000
0!
0-
#175000
1!
1-
#180000
0!
0-
#185000
1!
1-
#190000
0!
0-
#195000
1!
1-
#200000
0!
0-
#205000
1!
1-
#210000
0!
0-
#215000
1!
1-
#220000
0!
0-
#225000
1!
1-
#230000
0!
0-
#235000
1!
1-
#240000
0!
0-
#245000
1!
1-
#250000
0!
0-
#255000
1!
1-
#260000
0!
0-
#265000
1!
1-
#270000
0!
0-
#275000
1!
1-
#280000
0!
0-
#285000
1!
1-
#290000
0!
0-
#295000
1!
1-
#300000
0!
0-
#305000
1!
1-
#310000
0!
0-
#315000
1!
1-
#320000
0!
0-
#325000
1!
1-
#330000
0!
0-
#335000
1!
1-
#340000
0!
0-
#345000
1!
1-
#350000
0!
0-
#355000
1!
1-
#360000
0!
0-
#365000
1!
1-
#370000
0!
0-
#375000
1!
1-
#380000
0!
0-
#385000
1!
1-
#390000
0!
0-
#395000
1!
1-
#400000
0!
0-
#405000
1!
1-
#410000
0!
0-
#415000
1!
1-
#420000
0!
0-
#425000
1!
1-
#430000
0!
0-
#435000
1!
1-
#440000
0!
0-
#445000
1!
1-
#450000
0!
0-
#455000
1!
1-
#460000
0!
0-
#465000
1!
1-
#470000
0!
0-
#475000
1!
1-
#480000
0!
0-
#485000
1!
1-
#490000
0!
0-
#495000
1!
1-
#500000
0!
0-
#505000
1!
1-
#510000
0!
0-
#515000
1!
1-
#520000
0!
0-
#525000
1!
1-
#530000
0!
0-
#535000
1!
1-
#540000
0!
0-
#545000
1!
1-
#550000
0!
0-
#555000
1!
1-
#560000
0!
0-
#565000
1!
1-
#570000
0!
0-
#575000
1!
1-
#580000
0!
0-
#585000
1!
1-
#590000
0!
0-
#595000
1!
1-
#600000
0!
0-
#605000
1!
1-
#610000
0!
0-
#615000
1!
1-
#620000
0!
0-
#625000
1!
1-
#630000
0!
0-
#635000
1!
1-
#640000
0!
0-
#645000
1!
1-
#650000
0!
0-
#655000
1!
1-
#660000
0!
0-
#665000
1!
1-
#670000
0!
0-
#675000
1!
1-
#680000
0!
0-
#685000
1!
1-
#690000
0!
0-
#695000
1!
1-
#700000
0!
0-
#705000
1!
1-
#710000
0!
0-
#715000
1!
1-
#720000
0!
0-
#725000
1!
1-
#730000
0!
0-
#735000
1!
1-
#740000
0!
0-
#745000
1!
1-
#750000
0!
0-
#755000
1!
1-
#760000
0!
0-
#765000
1!
1-
#770000
0!
0-
#775000
1!
1-
#780000
0!
0-
#785000
1!
1-
#790000
0!
0-
#795000
1!
1-
#800000
0!
0-
#805000
1!
1-
#810000
0!
0-
#815000
1!
1-
#820000
0!
0-
#825000
1!
1-
#830000
0!
0-
#835000
1!
1-
#840000
0!
0-
#845000
1!
1-
#850000
0!
0-
#855000
1!
1-
#860000
0!
0-
#865000
1!
1-
#870000
0!
0-
#875000
1!
1-
#880000
0!
0-
#885000
1!
1-
#890000
0!
0-
#895000
1!
1-
#900000
0!
0-
#905000
1!
1-
#910000
0!
0-
#915000
1!
1-
#920000
0!
0-
#925000
1!
1-
#930000
0!
0-
#935000
1!
1-
#940000
0!
0-
#945000
1!
1-
#950000
0!
0-
#955000
1!
1-
#960000
0!
0-
#965000
1!
1-
#970000
0!
0-
#975000
1!
1-
#980000
0!
0-
#985000
1!
1-
#990000
0!
0-
#995000
1!
1-
